(module SAMTEC_SFMC-105-02-L-D (layer F.Cu) (tedit 61260991)
  (fp_text reference REF** (at -1.19 -4.36) (layer F.SilkS)
    (effects (font (size 1 1) (thickness 0.15)))
  )
  (fp_text value SAMTEC_SFMC-105-02-L-D (at 9.605 4.34) (layer F.Fab)
    (effects (font (size 1 1) (thickness 0.15)))
  )
  (fp_line (start -3.365 1.525) (end -3.365 -1.525) (layer F.Fab) (width 0.1))
  (fp_line (start -3.365 -1.525) (end 3.365 -1.525) (layer F.Fab) (width 0.1))
  (fp_line (start 3.365 -1.525) (end 3.365 1.525) (layer F.Fab) (width 0.1))
  (fp_line (start 3.365 1.525) (end -3.365 1.525) (layer F.Fab) (width 0.1))
  (fp_line (start -3.365 1.525) (end -3.365 -1.525) (layer F.Fab) (width 0.1))
  (fp_line (start -3.365 -1.525) (end 3.365 -1.525) (layer F.Fab) (width 0.1))
  (fp_line (start 3.365 -1.525) (end 3.365 1.525) (layer F.Fab) (width 0.1))
  (fp_line (start -3.365 1.525) (end -3.365 -1.525) (layer F.SilkS) (width 0.2))
  (fp_line (start 3.365 -1.525) (end 3.365 1.525) (layer F.SilkS) (width 0.2))
  (fp_line (start -3.365 -1.525) (end -3.26 -1.525) (layer F.SilkS) (width 0.2))
  (fp_line (start 3.26 -1.525) (end 3.365 -1.525) (layer F.SilkS) (width 0.2))
  (fp_line (start 3.26 1.525) (end 3.365 1.525) (layer F.SilkS) (width 0.2))
  (fp_line (start -3.26 1.525) (end -3.365 1.525) (layer F.SilkS) (width 0.2))
  (fp_line (start -3.615 2.725) (end -3.615 -2.725) (layer F.CrtYd) (width 0.05))
  (fp_line (start -3.615 -2.725) (end 3.615 -2.725) (layer F.CrtYd) (width 0.05))
  (fp_line (start 3.615 -2.725) (end 3.615 2.725) (layer F.CrtYd) (width 0.05))
  (fp_line (start 3.615 2.725) (end -3.615 2.725) (layer F.CrtYd) (width 0.05))
  (fp_circle (center 4.015 1.365) (end 4.115 1.365) (layer F.SilkS) (width 0.2))
  (fp_circle (center 4.015 1.365) (end 4.115 1.365) (layer F.Fab) (width 0.2))
  (pad 10 smd rect (at -2.54 -1.365) (size 0.74 2.22) (layers F.Cu F.Paste F.Mask))
  (pad 09 smd rect (at -2.54 1.365) (size 0.74 2.22) (layers F.Cu F.Paste F.Mask))
  (pad 08 smd rect (at -1.27 -1.365) (size 0.74 2.22) (layers F.Cu F.Paste F.Mask))
  (pad 07 smd rect (at -1.27 1.365) (size 0.74 2.22) (layers F.Cu F.Paste F.Mask))
  (pad 06 smd rect (at 0 -1.365) (size 0.74 2.22) (layers F.Cu F.Paste F.Mask))
  (pad 05 smd rect (at 0 1.365) (size 0.74 2.22) (layers F.Cu F.Paste F.Mask))
  (pad 04 smd rect (at 1.27 -1.365) (size 0.74 2.22) (layers F.Cu F.Paste F.Mask))
  (pad 03 smd rect (at 1.27 1.365) (size 0.74 2.22) (layers F.Cu F.Paste F.Mask))
  (pad 02 smd rect (at 2.54 -1.365) (size 0.74 2.22) (layers F.Cu F.Paste F.Mask))
  (pad 01 smd rect (at 2.54 1.365) (size 0.74 2.22) (layers F.Cu F.Paste F.Mask))
)
